EESchema Schematic File Version 2
LIBS:power
LIBS:device
LIBS:transistors
LIBS:conn
LIBS:linear
LIBS:regul
LIBS:74xx
LIBS:cmos4000
LIBS:adc-dac
LIBS:memory
LIBS:xilinx
LIBS:microcontrollers
LIBS:dsp
LIBS:microchip
LIBS:analog_switches
LIBS:motorola
LIBS:texas
LIBS:intel
LIBS:audio
LIBS:interface
LIBS:digital-audio
LIBS:philips
LIBS:display
LIBS:cypress
LIBS:siliconi
LIBS:opto
LIBS:atmel
LIBS:contrib
LIBS:valves
LIBS:stm32
LIBS:addon
LIBS:project-cache
EELAYER 25 0
EELAYER END
$Descr A4 11693 8268
encoding utf-8
Sheet 1 6
Title ""
Date ""
Rev ""
Comp ""
Comment1 ""
Comment2 ""
Comment3 ""
Comment4 ""
$EndDescr
$Comp
L STM32F103RBT6 U101
U 1 1 57FFD128
P 3200 2700
F 0 "U101" H 3200 4500 60  0000 C CNN
F 1 "STM32F103RBT6" H 3200 900 60  0000 C CNN
F 2 "Local:LQFP-64_10x10mm_Pitch0.5mm" H 3200 2700 60  0001 C CNN
F 3 "" H 3200 2700 60  0000 C CNN
	1    3200 2700
	1    0    0    -1  
$EndComp
Text GLabel 1500 2000 0    47   Input ~ 0
UART_TX
Text GLabel 1500 2100 0    47   Input ~ 0
UART_RX
Text GLabel 1500 2300 0    47   Input ~ 0
USB_DP
Text GLabel 1500 2200 0    47   Input ~ 0
USB_DM
Text GLabel 1500 2400 0    47   Input ~ 0
SWDIO
Text GLabel 1500 2500 0    47   Input ~ 0
SWCLK
Text GLabel 1500 1100 0    47   Input ~ 0
T_BAT1
Text GLabel 1500 2800 0    47   Input ~ 0
OSC_IN
Text GLabel 1500 2900 0    47   Input ~ 0
OSC_OUT
Text GLabel 1500 3200 0    47   Input ~ 0
~RESET
Text GLabel 4900 1700 2    47   Input ~ 0
S_BAT1
Text GLabel 4900 1800 2    47   Input ~ 0
S_BAT2
Text GLabel 4900 1900 2    47   Input ~ 0
S_BAT3
Text GLabel 4900 2000 2    47   Input ~ 0
S_BAT4
Text GLabel 4900 1100 2    47   Input ~ 0
I_BAT1
Text GLabel 1500 1200 0    47   Input ~ 0
T_BAT2
Text GLabel 1500 1300 0    47   Input ~ 0
T_BAT3
Text GLabel 1500 1400 0    47   Input ~ 0
T_BAT4
Text GLabel 4900 1200 2    47   Input ~ 0
I_BAT2
Text GLabel 4900 1300 2    47   Input ~ 0
I_BAT3
Text GLabel 4900 1400 2    47   Input ~ 0
I_BAT4
Text GLabel 4900 1500 2    47   Input ~ 0
U_BAT1
Text GLabel 4900 1600 2    47   Input ~ 0
U_BAT2
Text GLabel 1500 1500 0    47   Input ~ 0
U_BAT3
Text GLabel 1500 1600 0    47   Input ~ 0
U_BAT4
Text GLabel 1500 1700 0    47   Input ~ 0
U_EXT
Text GLabel 1500 1800 0    47   Input ~ 0
U_USB
Text GLabel 4900 2800 2    47   Input ~ 0
T_EXT
Text GLabel 4900 2900 2    47   Input ~ 0
L_EXT
$Sheet
S 9500 900  1300 600 
U 57FFE043
F0 "Battery1" 47
F1 "battery.sch" 47
F2 "I_BAT" I L 9500 1000 47 
F3 "U_BAT" I L 9500 1100 47 
F4 "S_BAT" I L 9500 1200 47 
F5 "T_BAT" I L 9500 1300 47 
F6 "E_BAT" I L 9500 1400 47 
$EndSheet
Text GLabel 9400 1000 0    47   Input ~ 0
I_BAT1
Text GLabel 9400 1100 0    47   Input ~ 0
U_BAT1
Text GLabel 9400 1200 0    47   Input ~ 0
S_BAT1
Text GLabel 9400 1300 0    47   Input ~ 0
T_BAT1
$Sheet
S 9500 1800 1300 600 
U 5800D9F5
F0 "Battery2" 47
F1 "battery.sch" 47
F2 "I_BAT" I L 9500 1900 47 
F3 "U_BAT" I L 9500 2000 47 
F4 "S_BAT" I L 9500 2100 47 
F5 "T_BAT" I L 9500 2200 47 
F6 "E_BAT" I L 9500 2300 47 
$EndSheet
Text GLabel 9400 1900 0    47   Input ~ 0
I_BAT2
Text GLabel 9400 2000 0    47   Input ~ 0
U_BAT2
Text GLabel 9400 2100 0    47   Input ~ 0
S_BAT2
Text GLabel 9400 2200 0    47   Input ~ 0
T_BAT2
$Sheet
S 9500 2700 1300 600 
U 5800E773
F0 "Battery3" 47
F1 "battery.sch" 47
F2 "I_BAT" I L 9500 2800 47 
F3 "U_BAT" I L 9500 2900 47 
F4 "S_BAT" I L 9500 3000 47 
F5 "T_BAT" I L 9500 3100 47 
F6 "E_BAT" I L 9500 3200 47 
$EndSheet
Text GLabel 9400 2800 0    47   Input ~ 0
I_BAT3
Text GLabel 9400 2900 0    47   Input ~ 0
U_BAT3
Text GLabel 9400 3000 0    47   Input ~ 0
S_BAT3
Text GLabel 9400 3100 0    47   Input ~ 0
T_BAT3
$Sheet
S 9500 3600 1300 600 
U 5800E781
F0 "Battery4" 47
F1 "battery.sch" 47
F2 "I_BAT" I L 9500 3700 47 
F3 "U_BAT" I L 9500 3800 47 
F4 "S_BAT" I L 9500 3900 47 
F5 "T_BAT" I L 9500 4000 47 
F6 "E_BAT" I L 9500 4100 47 
$EndSheet
Text GLabel 9400 3700 0    47   Input ~ 0
I_BAT4
Text GLabel 9400 3800 0    47   Input ~ 0
U_BAT4
Text GLabel 9400 3900 0    47   Input ~ 0
S_BAT4
Text GLabel 9400 4000 0    47   Input ~ 0
T_BAT4
Text GLabel 9400 2300 0    47   Input ~ 0
E_BAT2
Text GLabel 9400 1400 0    47   Input ~ 0
E_BAT1
Text GLabel 9400 3200 0    47   Input ~ 0
E_BAT3
Text GLabel 9400 4100 0    47   Input ~ 0
E_BAT4
Text GLabel 4900 2100 2    47   Input ~ 0
E_BAT1
Text GLabel 4900 2200 2    47   Input ~ 0
E_BAT2
Text GLabel 4900 2300 2    47   Input ~ 0
E_BAT3
Text GLabel 4900 3000 2    47   Input ~ 0
E_BAT4
NoConn ~ 4900 2400
Text GLabel 4900 2500 2    47   Input ~ 0
OSC32_IN
Text GLabel 4900 2600 2    47   Input ~ 0
OSC32_OUT
NoConn ~ 1500 1900
NoConn ~ 1500 2600
NoConn ~ 1500 3000
NoConn ~ 1500 3100
$Comp
L Crystal Y101
U 1 1 58045D44
P 1650 5400
F 0 "Y101" H 1650 5550 50  0000 C CNN
F 1 "8MHz" H 1650 5250 50  0000 C CNN
F 2 "" H 1650 5400 50  0000 C CNN
F 3 "" H 1650 5400 50  0000 C CNN
	1    1650 5400
	1    0    0    -1  
$EndComp
$Comp
L C C101
U 1 1 58046195
P 1400 5650
F 0 "C101" H 1425 5750 50  0000 L CNN
F 1 "27p" H 1425 5550 50  0000 L CNN
F 2 "Local:C_0603" H 1438 5500 50  0001 C CNN
F 3 "" H 1400 5650 50  0000 C CNN
	1    1400 5650
	-1   0    0    -1  
$EndComp
$Comp
L C C102
U 1 1 58046470
P 1900 5650
F 0 "C102" H 1925 5750 50  0000 L CNN
F 1 "27p" H 1925 5550 50  0000 L CNN
F 2 "Local:C_0603" H 1938 5500 50  0001 C CNN
F 3 "" H 1900 5650 50  0000 C CNN
	1    1900 5650
	1    0    0    -1  
$EndComp
$Comp
L GND #PWR?
U 1 1 58047089
P 1400 5900
F 0 "#PWR?" H 1400 5650 50  0001 C CNN
F 1 "GND" H 1400 5750 50  0000 C CNN
F 2 "" H 1400 5900 50  0000 C CNN
F 3 "" H 1400 5900 50  0000 C CNN
	1    1400 5900
	1    0    0    -1  
$EndComp
$Comp
L GND #PWR?
U 1 1 5804711F
P 1900 5900
F 0 "#PWR?" H 1900 5650 50  0001 C CNN
F 1 "GND" H 1900 5750 50  0000 C CNN
F 2 "" H 1900 5900 50  0000 C CNN
F 3 "" H 1900 5900 50  0000 C CNN
	1    1900 5900
	1    0    0    -1  
$EndComp
$Comp
L R R101
U 1 1 58047546
P 1650 5100
F 0 "R101" V 1730 5100 50  0000 C CNN
F 1 "180K" V 1650 5100 50  0000 C CNN
F 2 "" V 1580 5100 50  0000 C CNN
F 3 "" H 1650 5100 50  0000 C CNN
	1    1650 5100
	0    1    -1   0   
$EndComp
Text GLabel 1300 5400 0    47   Input ~ 0
OSC_IN
Text GLabel 1400 5100 0    47   Input ~ 0
OSC_OUT
Text Notes 1800 5050 0    47   ~ 0
R[EXT]
$Comp
L Crystal Y102
U 1 1 58048AC5
P 3050 5400
F 0 "Y102" H 3050 5550 50  0000 C CNN
F 1 "32KHz" H 3050 5250 50  0000 C CNN
F 2 "" H 3050 5400 50  0000 C CNN
F 3 "" H 3050 5400 50  0000 C CNN
	1    3050 5400
	1    0    0    -1  
$EndComp
$Comp
L C C103
U 1 1 58048ACB
P 2800 5650
F 0 "C103" H 2825 5750 50  0000 L CNN
F 1 "8p" H 2825 5550 50  0000 L CNN
F 2 "Local:C_0603" H 2838 5500 50  0001 C CNN
F 3 "" H 2800 5650 50  0000 C CNN
	1    2800 5650
	-1   0    0    -1  
$EndComp
$Comp
L C C104
U 1 1 58048AD1
P 3300 5650
F 0 "C104" H 3325 5750 50  0000 L CNN
F 1 "8p" H 3325 5550 50  0000 L CNN
F 2 "Local:C_0603" H 3338 5500 50  0001 C CNN
F 3 "" H 3300 5650 50  0000 C CNN
	1    3300 5650
	1    0    0    -1  
$EndComp
$Comp
L GND #PWR?
U 1 1 58048ADF
P 2800 5900
F 0 "#PWR?" H 2800 5650 50  0001 C CNN
F 1 "GND" H 2800 5750 50  0000 C CNN
F 2 "" H 2800 5900 50  0000 C CNN
F 3 "" H 2800 5900 50  0000 C CNN
	1    2800 5900
	1    0    0    -1  
$EndComp
$Comp
L GND #PWR?
U 1 1 58048AE5
P 3300 5900
F 0 "#PWR?" H 3300 5650 50  0001 C CNN
F 1 "GND" H 3300 5750 50  0000 C CNN
F 2 "" H 3300 5900 50  0000 C CNN
F 3 "" H 3300 5900 50  0000 C CNN
	1    3300 5900
	1    0    0    -1  
$EndComp
Text GLabel 2700 5400 0    47   Input ~ 0
OSC32_IN
Text GLabel 2800 5100 0    47   Input ~ 0
OSC32_OUT
$Sheet
S 9500 5300 1300 600 
U 5804A899
F0 "Supply" 47
F1 "supply.sch" 47
$EndSheet
$Comp
L LD1117S33TR U102
U 1 1 5805FA0E
P 3300 6850
F 0 "U102" H 3300 7150 50  0000 C CNN
F 1 "LD1117S33TR" H 3300 7050 50  0000 C CNN
F 2 "SOT-223" H 3300 6950 50  0001 C CNN
F 3 "" H 3300 6850 50  0000 C CNN
	1    3300 6850
	1    0    0    -1  
$EndComp
$Comp
L GND #PWR?
U 1 1 5805FD99
P 3300 7200
F 0 "#PWR?" H 3300 6950 50  0001 C CNN
F 1 "GND" H 3300 7050 50  0000 C CNN
F 2 "" H 3300 7200 50  0000 C CNN
F 3 "" H 3300 7200 50  0000 C CNN
	1    3300 7200
	1    0    0    -1  
$EndComp
$Comp
L CP C105
U 1 1 5805FE30
P 5200 5650
F 0 "C105" H 5225 5750 50  0000 L CNN
F 1 "10u" H 5225 5550 50  0000 L CNN
F 2 "" H 5238 5500 50  0000 C CNN
F 3 "" H 5200 5650 50  0000 C CNN
	1    5200 5650
	1    0    0    -1  
$EndComp
Text GLabel 5300 5400 2    47   Input ~ 0
+3V3A
$Comp
L C C108
U 1 1 580606AE
P 6300 5650
F 0 "C108" H 6325 5750 50  0000 L CNN
F 1 "10n" H 6325 5550 50  0000 L CNN
F 2 "Local:C_0603" H 6338 5500 50  0001 C CNN
F 3 "" H 6300 5650 50  0000 C CNN
	1    6300 5650
	1    0    0    -1  
$EndComp
Text GLabel 6300 5400 1    47   Input ~ 0
+3V3A
$Comp
L C C107
U 1 1 5806148B
P 5900 5650
F 0 "C107" H 5925 5750 50  0000 L CNN
F 1 "1u" H 5925 5550 50  0000 L CNN
F 2 "Local:C_0603" H 5938 5500 50  0001 C CNN
F 3 "" H 5900 5650 50  0000 C CNN
	1    5900 5650
	1    0    0    -1  
$EndComp
Text GLabel 5900 5400 1    47   Input ~ 0
+3V3A
Text GLabel 1300 3500 0    47   Input ~ 0
+3V3A
$Comp
L GNDA #PWR?
U 1 1 5806329B
P 1300 3400
F 0 "#PWR?" H 1300 3150 50  0001 C CNN
F 1 "GNDA" V 1300 3150 50  0000 C CNN
F 2 "" H 1300 3400 50  0000 C CNN
F 3 "" H 1300 3400 50  0000 C CNN
	1    1300 3400
	0    1    1    0   
$EndComp
$Comp
L GND #PWR01
U 1 1 57FFDF6A
P 1300 4200
F 0 "#PWR01" H 1300 3950 50  0001 C CNN
F 1 "GND" V 1300 4000 50  0000 C CNN
F 2 "" H 1300 4200 50  0000 C CNN
F 3 "" H 1300 4200 50  0000 C CNN
	1    1300 4200
	0    1    1    0   
$EndComp
Text GLabel 2800 6800 0    47   Input ~ 0
+VC
Text GLabel 1400 6800 0    47   Input ~ 0
+5VE
Text GLabel 2100 6800 2    47   Input ~ 0
+VC
$Comp
L D_Schottky D101
U 1 1 5806756A
P 1750 6800
F 0 "D101" H 1750 6900 50  0000 C CNN
F 1 "SS14" H 1750 6700 50  0000 C CNN
F 2 "" H 1750 6800 50  0000 C CNN
F 3 "" H 1750 6800 50  0000 C CNN
	1    1750 6800
	-1   0    0    -1  
$EndComp
Text GLabel 1400 7200 0    47   Input ~ 0
+5VP
Text GLabel 2100 7200 2    47   Input ~ 0
+VC
$Comp
L D_Schottky D102
U 1 1 580690B3
P 1750 7200
F 0 "D102" H 1750 7300 50  0000 C CNN
F 1 "SS14" H 1750 7100 50  0000 C CNN
F 2 "" H 1750 7200 50  0000 C CNN
F 3 "" H 1750 7200 50  0000 C CNN
	1    1750 7200
	-1   0    0    -1  
$EndComp
Text GLabel 3800 6800 2    47   Input ~ 0
+3V3
Text GLabel 1300 3900 0    47   Input ~ 0
+3V3
$Comp
L R R102
U 1 1 5806D6F2
P 4650 5400
F 0 "R102" V 4730 5400 50  0000 C CNN
F 1 "1" V 4650 5400 50  0000 C CNN
F 2 "" V 4580 5400 50  0000 C CNN
F 3 "" H 4650 5400 50  0000 C CNN
	1    4650 5400
	0    1    -1   0   
$EndComp
Text GLabel 4400 5400 0    47   Input ~ 0
+3V3
$Comp
L CP C106
U 1 1 5806E5C6
P 4500 7050
F 0 "C106" H 4525 7150 50  0000 L CNN
F 1 "100u" H 4525 6950 50  0000 L CNN
F 2 "" H 4538 6900 50  0000 C CNN
F 3 "" H 4500 7050 50  0000 C CNN
	1    4500 7050
	1    0    0    -1  
$EndComp
Text GLabel 4500 6800 1    47   Input ~ 0
+3V3
$Comp
L GND #PWR?
U 1 1 5806EA34
P 4500 7300
F 0 "#PWR?" H 4500 7050 50  0001 C CNN
F 1 "GND" H 4500 7150 50  0000 C CNN
F 2 "" H 4500 7300 50  0000 C CNN
F 3 "" H 4500 7300 50  0000 C CNN
	1    4500 7300
	1    0    0    -1  
$EndComp
$Comp
L C C109
U 1 1 5806EDC0
P 5100 7050
F 0 "C109" H 5125 7150 50  0000 L CNN
F 1 "100n" H 5125 6950 50  0000 L CNN
F 2 "Local:C_0603" H 5138 6900 50  0001 C CNN
F 3 "" H 5100 7050 50  0000 C CNN
	1    5100 7050
	1    0    0    -1  
$EndComp
$Comp
L GND #PWR?
U 1 1 5806F1E9
P 5100 7300
F 0 "#PWR?" H 5100 7050 50  0001 C CNN
F 1 "GND" H 5100 7150 50  0000 C CNN
F 2 "" H 5100 7300 50  0000 C CNN
F 3 "" H 5100 7300 50  0000 C CNN
	1    5100 7300
	1    0    0    -1  
$EndComp
Text GLabel 5100 6800 1    47   Input ~ 0
+3V3
Text Notes 4400 7300 1    47   ~ 0
NEAR TO VDD3
$Comp
L C C110
U 1 1 5806FDFD
P 5500 7050
F 0 "C110" H 5525 7150 50  0000 L CNN
F 1 "100n" H 5525 6950 50  0000 L CNN
F 2 "Local:C_0603" H 5538 6900 50  0001 C CNN
F 3 "" H 5500 7050 50  0000 C CNN
	1    5500 7050
	1    0    0    -1  
$EndComp
$Comp
L GND #PWR?
U 1 1 5806FE05
P 5500 7300
F 0 "#PWR?" H 5500 7050 50  0001 C CNN
F 1 "GND" H 5500 7150 50  0000 C CNN
F 2 "" H 5500 7300 50  0000 C CNN
F 3 "" H 5500 7300 50  0000 C CNN
	1    5500 7300
	1    0    0    -1  
$EndComp
Text GLabel 5500 6800 1    47   Input ~ 0
+3V3
$Comp
L C C111
U 1 1 5806FEC8
P 5900 7050
F 0 "C111" H 5925 7150 50  0000 L CNN
F 1 "100n" H 5925 6950 50  0000 L CNN
F 2 "Local:C_0603" H 5938 6900 50  0001 C CNN
F 3 "" H 5900 7050 50  0000 C CNN
	1    5900 7050
	1    0    0    -1  
$EndComp
$Comp
L GND #PWR?
U 1 1 5806FED0
P 5900 7300
F 0 "#PWR?" H 5900 7050 50  0001 C CNN
F 1 "GND" H 5900 7150 50  0000 C CNN
F 2 "" H 5900 7300 50  0000 C CNN
F 3 "" H 5900 7300 50  0000 C CNN
	1    5900 7300
	1    0    0    -1  
$EndComp
Text GLabel 5900 6800 1    47   Input ~ 0
+3V3
$Comp
L C C112
U 1 1 5806FF8D
P 6300 7050
F 0 "C112" H 6325 7150 50  0000 L CNN
F 1 "100n" H 6325 6950 50  0000 L CNN
F 2 "Local:C_0603" H 6338 6900 50  0001 C CNN
F 3 "" H 6300 7050 50  0000 C CNN
	1    6300 7050
	1    0    0    -1  
$EndComp
$Comp
L GND #PWR?
U 1 1 5806FF95
P 6300 7300
F 0 "#PWR?" H 6300 7050 50  0001 C CNN
F 1 "GND" H 6300 7150 50  0000 C CNN
F 2 "" H 6300 7300 50  0000 C CNN
F 3 "" H 6300 7300 50  0000 C CNN
	1    6300 7300
	1    0    0    -1  
$EndComp
Text GLabel 6300 6800 1    47   Input ~ 0
+3V3
Text GLabel 1300 3300 0    47   Input ~ 0
+BAT
$Comp
L Battery BT101
U 1 1 58071527
P 3800 5600
F 0 "BT101" H 3900 5650 50  0000 L CNN
F 1 "CR 3V" H 3900 5550 50  0000 L CNN
F 2 "" V 3800 5640 50  0000 C CNN
F 3 "" V 3800 5640 50  0000 C CNN
	1    3800 5600
	1    0    0    -1  
$EndComp
$Comp
L GND #PWR?
U 1 1 580719C2
P 3800 5900
F 0 "#PWR?" H 3800 5650 50  0001 C CNN
F 1 "GND" H 3800 5750 50  0000 C CNN
F 2 "" H 3800 5900 50  0000 C CNN
F 3 "" H 3800 5900 50  0000 C CNN
	1    3800 5900
	1    0    0    -1  
$EndComp
Text GLabel 3800 5300 1    47   Input ~ 0
+BAT
$Comp
L GNDA #PWR?
U 1 1 58073B20
P 4800 5900
F 0 "#PWR?" H 4800 5650 50  0001 C CNN
F 1 "GNDA" H 4800 5750 50  0000 C CNN
F 2 "" H 4800 5900 50  0000 C CNN
F 3 "" H 4800 5900 50  0000 C CNN
	1    4800 5900
	1    0    0    -1  
$EndComp
$Comp
L GND #PWR?
U 1 1 58073D2D
P 4400 5900
F 0 "#PWR?" H 4400 5650 50  0001 C CNN
F 1 "GND" H 4400 5750 50  0000 C CNN
F 2 "" H 4400 5900 50  0000 C CNN
F 3 "" H 4400 5900 50  0000 C CNN
	1    4400 5900
	1    0    0    -1  
$EndComp
$Comp
L L_Small L102
U 1 1 58073FE3
P 4600 5800
F 0 "L102" V 4700 5800 50  0000 C CNN
F 1 "470R" V 4550 5800 50  0000 C CNN
F 2 "" H 4600 5800 50  0000 C CNN
F 3 "" H 4600 5800 50  0000 C CNN
	1    4600 5800
	0    -1   -1   0   
$EndComp
$Comp
L L_Small L101
U 1 1 58074D3A
P 5000 5400
F 0 "L101" V 5100 5400 50  0000 C CNN
F 1 "470R" V 4950 5400 50  0000 C CNN
F 2 "" H 5000 5400 50  0000 C CNN
F 3 "" H 5000 5400 50  0000 C CNN
	1    5000 5400
	0    -1   -1   0   
$EndComp
$Comp
L GNDA #PWR?
U 1 1 58085D8D
P 5200 5900
F 0 "#PWR?" H 5200 5650 50  0001 C CNN
F 1 "GNDA" H 5200 5750 50  0000 C CNN
F 2 "" H 5200 5900 50  0000 C CNN
F 3 "" H 5200 5900 50  0000 C CNN
	1    5200 5900
	1    0    0    -1  
$EndComp
$Comp
L GNDA #PWR?
U 1 1 58085FED
P 5900 5900
F 0 "#PWR?" H 5900 5650 50  0001 C CNN
F 1 "GNDA" H 5900 5750 50  0000 C CNN
F 2 "" H 5900 5900 50  0000 C CNN
F 3 "" H 5900 5900 50  0000 C CNN
	1    5900 5900
	1    0    0    -1  
$EndComp
$Comp
L GNDA #PWR?
U 1 1 580860B5
P 6300 5900
F 0 "#PWR?" H 6300 5650 50  0001 C CNN
F 1 "GNDA" H 6300 5750 50  0000 C CNN
F 2 "" H 6300 5900 50  0000 C CNN
F 3 "" H 6300 5900 50  0000 C CNN
	1    6300 5900
	1    0    0    -1  
$EndComp
Wire Wire Line
	1600 2000 1500 2000
Wire Wire Line
	1600 2100 1500 2100
Wire Wire Line
	4800 3400 4900 3400
Wire Wire Line
	4800 3500 4900 3500
Wire Wire Line
	1600 2200 1500 2200
Wire Wire Line
	1600 2300 1500 2300
Wire Wire Line
	1600 2400 1500 2400
Wire Wire Line
	1600 2500 1500 2500
Wire Wire Line
	4800 1100 4900 1100
Wire Wire Line
	4800 1200 4900 1200
Wire Wire Line
	4800 1300 4900 1300
Wire Wire Line
	4800 1400 4900 1400
Wire Wire Line
	4800 1500 4900 1500
Wire Wire Line
	4800 1600 4900 1600
Wire Wire Line
	1500 1600 1600 1600
Wire Wire Line
	4800 3300 4900 3300
Wire Wire Line
	4800 3100 4900 3100
Wire Wire Line
	4800 3200 4900 3200
Wire Wire Line
	1600 2800 1500 2800
Wire Wire Line
	1600 2900 1500 2900
Wire Wire Line
	1600 3200 1500 3200
Wire Wire Line
	4800 1700 4900 1700
Wire Wire Line
	4800 1800 4900 1800
Wire Wire Line
	4800 1900 4900 1900
Wire Wire Line
	4800 2000 4900 2000
Wire Wire Line
	1600 1100 1500 1100
Wire Wire Line
	1600 1200 1500 1200
Wire Wire Line
	1600 1300 1500 1300
Wire Wire Line
	1600 1400 1500 1400
Wire Wire Line
	1600 1500 1500 1500
Wire Wire Line
	4800 2800 4900 2800
Wire Wire Line
	4800 2900 4900 2900
Wire Wire Line
	1600 1700 1500 1700
Wire Wire Line
	1600 1800 1500 1800
Wire Wire Line
	1300 3400 1600 3400
Wire Wire Line
	1500 3800 1600 3800
Wire Wire Line
	1500 4000 1600 4000
Connection ~ 1500 3800
Wire Wire Line
	1300 4200 1600 4200
Connection ~ 1500 4000
Connection ~ 1500 4200
Wire Wire Line
	1400 3700 1400 4300
Wire Wire Line
	1400 4100 1600 4100
Wire Wire Line
	1300 3900 1600 3900
Connection ~ 1400 4100
Connection ~ 1400 3900
Wire Wire Line
	9500 1000 9400 1000
Wire Wire Line
	9500 1100 9400 1100
Wire Wire Line
	9500 1200 9400 1200
Wire Wire Line
	9500 1300 9400 1300
Wire Wire Line
	9500 1900 9400 1900
Wire Wire Line
	9500 2000 9400 2000
Wire Wire Line
	9500 2100 9400 2100
Wire Wire Line
	9500 2200 9400 2200
Wire Wire Line
	9500 2800 9400 2800
Wire Wire Line
	9500 2900 9400 2900
Wire Wire Line
	9500 3000 9400 3000
Wire Wire Line
	9500 3100 9400 3100
Wire Wire Line
	9500 3700 9400 3700
Wire Wire Line
	9500 3800 9400 3800
Wire Wire Line
	9500 3900 9400 3900
Wire Wire Line
	9500 4000 9400 4000
Wire Wire Line
	9500 2300 9400 2300
Wire Wire Line
	9500 1400 9400 1400
Wire Wire Line
	9500 3200 9400 3200
Wire Wire Line
	9500 4100 9400 4100
Wire Wire Line
	4900 2100 4800 2100
Wire Wire Line
	4900 2200 4800 2200
Wire Wire Line
	4900 2300 4800 2300
Wire Wire Line
	4900 2400 4800 2400
Wire Wire Line
	1600 1900 1500 1900
Wire Wire Line
	1600 2600 1500 2600
Wire Wire Line
	1600 3000 1500 3000
Wire Wire Line
	1600 3100 1500 3100
Wire Wire Line
	4800 3000 4900 3000
Wire Wire Line
	4800 3600 4900 3600
Wire Wire Line
	4800 3700 4900 3700
Wire Wire Line
	4800 3800 4900 3800
Wire Wire Line
	4800 3900 4900 3900
Wire Wire Line
	4800 4000 4900 4000
Wire Wire Line
	4800 4100 4900 4100
Wire Wire Line
	4800 4200 4900 4200
Wire Wire Line
	4800 4300 4900 4300
Wire Wire Line
	4800 2500 4900 2500
Wire Wire Line
	4800 2600 4900 2600
Wire Wire Line
	1300 5400 1500 5400
Wire Wire Line
	1400 5400 1400 5500
Wire Wire Line
	1800 5400 1900 5400
Wire Wire Line
	1900 5100 1900 5500
Wire Wire Line
	1400 5800 1400 5900
Wire Wire Line
	1900 5800 1900 5900
Connection ~ 1400 5400
Connection ~ 1900 5400
Wire Wire Line
	1900 5100 1800 5100
Wire Wire Line
	1500 5100 1400 5100
Wire Wire Line
	2700 5400 2900 5400
Wire Wire Line
	2800 5400 2800 5500
Wire Wire Line
	3200 5400 3300 5400
Wire Wire Line
	3300 5100 3300 5500
Wire Wire Line
	2800 5800 2800 5900
Wire Wire Line
	3300 5800 3300 5900
Connection ~ 2800 5400
Connection ~ 3300 5400
Wire Wire Line
	3300 5100 2800 5100
Wire Wire Line
	3300 7100 3300 7200
Wire Wire Line
	2900 6800 2800 6800
Wire Wire Line
	5200 5500 5200 5400
Wire Wire Line
	5100 5400 5300 5400
Wire Wire Line
	5200 5800 5200 5900
Wire Wire Line
	6300 5500 6300 5400
Wire Wire Line
	6300 5800 6300 5900
Wire Wire Line
	5900 5500 5900 5400
Wire Wire Line
	5900 5800 5900 5900
Wire Notes Line
	5700 5000 5700 6200
Wire Wire Line
	1600 3500 1300 3500
Wire Wire Line
	1600 3600 1500 3600
Wire Wire Line
	1500 3600 1500 4200
Wire Wire Line
	1400 4300 1600 4300
Wire Wire Line
	1400 6800 1600 6800
Wire Wire Line
	1900 6800 2100 6800
Wire Wire Line
	1400 7200 1600 7200
Wire Wire Line
	1900 7200 2100 7200
Wire Wire Line
	3800 6800 3700 6800
Connection ~ 5200 5400
Wire Wire Line
	4500 5400 4400 5400
Wire Wire Line
	4500 6800 4500 6900
Wire Wire Line
	4500 7200 4500 7300
Wire Wire Line
	5100 6900 5100 6800
Wire Wire Line
	5100 7200 5100 7300
Wire Wire Line
	5500 6900 5500 6800
Wire Wire Line
	5500 7200 5500 7300
Wire Wire Line
	5900 6900 5900 6800
Wire Wire Line
	5900 7200 5900 7300
Wire Wire Line
	6300 6900 6300 6800
Wire Wire Line
	6300 7200 6300 7300
Wire Wire Line
	1600 3700 1400 3700
Wire Wire Line
	1600 3300 1300 3300
Wire Wire Line
	3800 5800 3800 5900
Wire Wire Line
	3800 5400 3800 5300
Wire Wire Line
	4700 5800 4800 5800
Wire Wire Line
	4800 5800 4800 5900
Wire Wire Line
	4500 5800 4400 5800
Wire Wire Line
	4400 5800 4400 5900
Wire Wire Line
	4900 5400 4800 5400
Wire Notes Line
	4300 6400 6600 6400
Wire Notes Line
	6600 6400 6600 7600
Wire Notes Line
	6600 7600 4300 7600
Wire Notes Line
	4300 7600 4300 6400
Wire Notes Line
	5700 6200 6600 6200
Wire Notes Line
	6600 6200 6600 5000
Wire Notes Line
	6600 5000 5700 5000
$EndSCHEMATC
