EESchema Schematic File Version 2
LIBS:spice
LIBS:project-cache
EELAYER 25 0
EELAYER END
$Descr A4 11693 8268
encoding utf-8
Sheet 1 1
Title ""
Date ""
Rev ""
Comp ""
Comment1 ""
Comment2 ""
Comment3 ""
Comment4 ""
$EndDescr
$Comp
L V V1
U 1 1 572C2687
P 2700 5500
F 0 "V1" H 2600 5700 60  0000 C CNN
F 1 "DC 5V" H 2850 5300 47  0000 C CNN
F 2 "" H 2700 5500 60  0000 C CNN
F 3 "" H 2700 5500 60  0000 C CNN
	1    2700 5500
	1    0    0    -1  
$EndComp
$Comp
L 0 #GND01
U 1 1 572C3390
P 2700 5900
F 0 "#GND01" H 2700 5800 40  0001 C CNN
F 1 "0" H 2700 5830 40  0000 C CNN
F 2 "" H 2700 5900 60  0000 C CNN
F 3 "" H 2700 5900 60  0000 C CNN
	1    2700 5900
	1    0    0    -1  
$EndComp
Text GLabel 2800 2600 1    60   Input ~ 0
PWR
Text Notes 3300 2150 0    60   ~ 0
-pspice\n* \n.model LS sw\n+ vt=0.51V\n+ vh=1mV\n+ ron=5m\n+ roff=1Meg\n*\n.model HS sw\n+ vt=0.5V\n+ vh=1mV\n+ ron=1Meg\n+ roff=5m
Text Notes 5500 1100 0    60   ~ 0
-pspice\n* \n.include ../.spice/dio.lib\n.include ../.spice/ldo.lib
$Comp
L SWITCH S1
U 1 1 58047548
P 2800 3100
F 0 "S1" V 2600 2950 60  0000 C CNN
F 1 "LS" H 2800 3250 60  0000 C CNN
F 2 "" H 2800 2750 60  0000 C CNN
F 3 "" H 2800 2750 60  0000 C CNN
	1    2800 3100
	0    1    1    0   
$EndComp
$Comp
L 0 #GND02
U 1 1 580476F9
P 2300 3400
F 0 "#GND02" H 2300 3300 40  0001 C CNN
F 1 "0" H 2300 3330 40  0000 C CNN
F 2 "" H 2300 3400 60  0000 C CNN
F 3 "" H 2300 3400 60  0000 C CNN
	1    2300 3400
	1    0    0    -1  
$EndComp
$Comp
L V VM1
U 1 1 580478B6
P 1600 3500
F 0 "VM1" H 1500 3700 60  0000 C CNN
F 1 "DC 0V PWL 0uS 0V 3mS 0V 3.01mS 1V 7mS 1V 7.01mS 0V 10mS 0V" V 1350 3500 47  0000 C CNN
F 2 "" H 1600 3500 60  0000 C CNN
F 3 "" H 1600 3500 60  0000 C CNN
	1    1600 3500
	1    0    0    -1  
$EndComp
$Comp
L 0 #GND03
U 1 1 58047D89
P 1600 3900
F 0 "#GND03" H 1600 3800 40  0001 C CNN
F 1 "0" H 1600 3830 40  0000 C CNN
F 2 "" H 1600 3900 60  0000 C CNN
F 3 "" H 1600 3900 60  0000 C CNN
	1    1600 3900
	1    0    0    -1  
$EndComp
Text GLabel 1600 3050 1    60   Input ~ 0
PSW
Text GLabel 5100 2800 1    60   Input ~ 0
PWR
$Comp
L C CC2
U 1 1 5804A931
P 5100 3700
F 0 "CC2" H 5100 3825 60  0000 C CNN
F 1 "100u" H 5100 3575 60  0000 C CNN
F 2 "" H 4450 4250 60  0000 C CNN
F 3 "" H 4450 4250 60  0000 C CNN
	1    5100 3700
	0    -1   -1   0   
$EndComp
$Comp
L R RC2
U 1 1 5804A937
P 5100 3200
F 0 "RC2" H 5100 3300 60  0000 C CNN
F 1 "25m" H 5100 3100 60  0000 C CNN
F 2 "" H 5100 3200 60  0000 C CNN
F 3 "" H 5100 3200 60  0000 C CNN
	1    5100 3200
	0    -1   -1   0   
$EndComp
$Comp
L 0 #GND04
U 1 1 5804A93D
P 5100 4000
F 0 "#GND04" H 5100 3900 40  0001 C CNN
F 1 "0" H 5100 3930 40  0000 C CNN
F 2 "" H 5100 4000 60  0000 C CNN
F 3 "" H 5100 4000 60  0000 C CNN
	1    5100 4000
	1    0    0    -1  
$EndComp
Text GLabel 2700 4500 1    60   Input ~ 0
PWI
Text Notes 9000 4150 0    60   ~ 0
+pspice\n* \n.control\n  option nopage\n  tran 10uS 10mS 0mS\n  let Ip = -V1#branch\n  let Id = VS1#branch\n  let Ia = VS2#branch\n  let Vp = v(pwi)\n  let Vd = v(pwd)\n  let Va = v(pwa)\n  let Pp = Vp * Ip\n  let Pd = Vd * Id\n  let Pa = Va * Ia\n  let cop = (Pd + Pa + 1) / (Pp + 1)\n  set gnuplot_terminal=png\n  gnuplot project\n  + v(psw)\n  + Vp\n  + v(pwr)\n  + Vd\n  + Va\n  + Ip\n  + Id\n  + Ia\n  meas tran cop_avg avg cop\n.endc
Wire Wire Line
	2800 2600 2800 2800
Wire Wire Line
	2700 5700 2700 5900
Wire Wire Line
	2700 4500 2700 4700
Wire Wire Line
	2500 3150 2300 3150
Wire Wire Line
	2300 3150 2300 3400
Wire Wire Line
	1600 3050 1600 3300
Wire Wire Line
	1600 3700 1600 3900
Wire Wire Line
	5100 3400 5100 3600
Wire Wire Line
	5100 3800 5100 4000
Wire Wire Line
	5100 2800 5100 3000
$Comp
L D XD1
U 1 1 5806374E
P 4200 3700
F 0 "XD1" H 4200 3825 60  0000 C CNN
F 1 "SS14" H 4200 3575 60  0000 C CNN
F 2 "" H 4200 3700 60  0000 C CNN
F 3 "" H 4200 3700 60  0000 C CNN
	1    4200 3700
	0    -1   -1   0   
$EndComp
Text GLabel 2300 3050 0    60   Input ~ 0
PSW
Wire Wire Line
	2500 3050 2300 3050
Text GLabel 4200 2600 1    60   Input ~ 0
PWR
$Comp
L SWITCH S2
U 1 1 58063C48
P 4200 3100
F 0 "S2" V 4000 2950 60  0000 C CNN
F 1 "HS" H 4200 3250 60  0000 C CNN
F 2 "" H 4200 2750 60  0000 C CNN
F 3 "" H 4200 2750 60  0000 C CNN
	1    4200 3100
	0    1    1    0   
$EndComp
$Comp
L 0 #GND05
U 1 1 58063C4E
P 3700 3400
F 0 "#GND05" H 3700 3300 40  0001 C CNN
F 1 "0" H 3700 3330 40  0000 C CNN
F 2 "" H 3700 3400 60  0000 C CNN
F 3 "" H 3700 3400 60  0000 C CNN
	1    3700 3400
	1    0    0    -1  
$EndComp
Text GLabel 4200 4000 3    60   Input ~ 0
PWI
Wire Wire Line
	4200 2600 4200 2800
Wire Wire Line
	4200 3400 4200 3600
Wire Wire Line
	3900 3150 3700 3150
Wire Wire Line
	3700 3150 3700 3400
Text GLabel 3700 3050 0    60   Input ~ 0
PSW
Wire Wire Line
	3900 3050 3700 3050
Wire Wire Line
	4200 3800 4200 4000
Text GLabel 7300 2200 1    60   Input ~ 0
PWD
$Comp
L R R1
U 1 1 58064229
P 7300 3200
F 0 "R1" H 7300 3300 60  0000 C CNN
F 1 "22" H 7300 3100 60  0000 C CNN
F 2 "" H 7300 3200 60  0000 C CNN
F 3 "" H 7300 3200 60  0000 C CNN
	1    7300 3200
	0    -1   -1   0   
$EndComp
Wire Wire Line
	7300 2200 7300 2400
$Comp
L 0 #GND06
U 1 1 5806424A
P 7300 3600
F 0 "#GND06" H 7300 3500 40  0001 C CNN
F 1 "0" H 7300 3530 40  0000 C CNN
F 2 "" H 7300 3600 60  0000 C CNN
F 3 "" H 7300 3600 60  0000 C CNN
	1    7300 3600
	1    0    0    -1  
$EndComp
Wire Wire Line
	7300 3400 7300 3600
$Comp
L LDO XU1
U 1 1 58064489
P 6200 3050
F 0 "XU1" H 6200 3300 60  0000 C CNN
F 1 "LD1117_33" H 6200 3200 60  0000 C CNN
F 2 "" H 6200 3050 60  0000 C CNN
F 3 "" H 6200 3050 60  0000 C CNN
	1    6200 3050
	1    0    0    -1  
$EndComp
$Comp
L 0 #GND07
U 1 1 58064696
P 6200 3400
F 0 "#GND07" H 6200 3300 40  0001 C CNN
F 1 "0" H 6200 3330 40  0000 C CNN
F 2 "" H 6200 3400 60  0000 C CNN
F 3 "" H 6200 3400 60  0000 C CNN
	1    6200 3400
	1    0    0    -1  
$EndComp
Wire Wire Line
	6200 3200 6200 3400
Text GLabel 5750 3050 0    60   Input ~ 0
PWR
Text GLabel 6650 3050 2    60   Input ~ 0
PWD
Wire Wire Line
	6650 3050 6450 3050
Wire Wire Line
	5950 3050 5750 3050
$Comp
L C C1
U 1 1 5806495B
P 7800 3300
F 0 "C1" H 7800 3425 60  0000 C CNN
F 1 "10u" H 7800 3175 60  0000 C CNN
F 2 "" H 7150 3850 60  0000 C CNN
F 3 "" H 7150 3850 60  0000 C CNN
	1    7800 3300
	0    -1   -1   0   
$EndComp
Wire Wire Line
	7800 3400 7800 3600
Wire Wire Line
	7800 3200 7800 3000
Text GLabel 7800 3000 1    60   Input ~ 0
PWD
$Comp
L 0 #GND08
U 1 1 58064C7E
P 7800 3600
F 0 "#GND08" H 7800 3500 40  0001 C CNN
F 1 "0" H 7800 3530 40  0000 C CNN
F 2 "" H 7800 3600 60  0000 C CNN
F 3 "" H 7800 3600 60  0000 C CNN
	1    7800 3600
	1    0    0    -1  
$EndComp
Text GLabel 2800 3600 3    60   Input ~ 0
PWI
Wire Wire Line
	2800 3400 2800 3600
$Comp
L LDO XU2
U 1 1 5806620C
P 6200 4700
F 0 "XU2" H 6200 4950 60  0000 C CNN
F 1 "LD1117_33" H 6200 4850 60  0000 C CNN
F 2 "" H 6200 4700 60  0000 C CNN
F 3 "" H 6200 4700 60  0000 C CNN
	1    6200 4700
	1    0    0    -1  
$EndComp
$Comp
L 0 #GND09
U 1 1 58066212
P 6200 5050
F 0 "#GND09" H 6200 4950 40  0001 C CNN
F 1 "0" H 6200 4980 40  0000 C CNN
F 2 "" H 6200 5050 60  0000 C CNN
F 3 "" H 6200 5050 60  0000 C CNN
	1    6200 5050
	1    0    0    -1  
$EndComp
Wire Wire Line
	6200 4850 6200 5050
Text GLabel 5750 4700 0    60   Input ~ 0
PWR
Text GLabel 6650 4700 2    60   Input ~ 0
PWA
Wire Wire Line
	6650 4700 6450 4700
Wire Wire Line
	5950 4700 5750 4700
Text GLabel 7300 4300 1    60   Input ~ 0
PWA
$Comp
L R R2
U 1 1 580662F2
P 7300 5300
F 0 "R2" H 7300 5400 60  0000 C CNN
F 1 "800" H 7300 5200 60  0000 C CNN
F 2 "" H 7300 5300 60  0000 C CNN
F 3 "" H 7300 5300 60  0000 C CNN
	1    7300 5300
	0    -1   -1   0   
$EndComp
Wire Wire Line
	7300 4300 7300 4500
$Comp
L 0 #GND010
U 1 1 580662F9
P 7300 5700
F 0 "#GND010" H 7300 5600 40  0001 C CNN
F 1 "0" H 7300 5630 40  0000 C CNN
F 2 "" H 7300 5700 60  0000 C CNN
F 3 "" H 7300 5700 60  0000 C CNN
	1    7300 5700
	1    0    0    -1  
$EndComp
Wire Wire Line
	7300 5500 7300 5700
$Comp
L C C2
U 1 1 58066300
P 7800 5400
F 0 "C2" H 7800 5525 60  0000 C CNN
F 1 "10u" H 7800 5275 60  0000 C CNN
F 2 "" H 7150 5950 60  0000 C CNN
F 3 "" H 7150 5950 60  0000 C CNN
	1    7800 5400
	0    -1   -1   0   
$EndComp
Wire Wire Line
	7800 5500 7800 5700
Wire Wire Line
	7800 5300 7800 5100
Text GLabel 7800 5100 1    60   Input ~ 0
PWA
$Comp
L 0 #GND011
U 1 1 58066309
P 7800 5700
F 0 "#GND011" H 7800 5600 40  0001 C CNN
F 1 "0" H 7800 5630 40  0000 C CNN
F 2 "" H 7800 5700 60  0000 C CNN
F 3 "" H 7800 5700 60  0000 C CNN
	1    7800 5700
	1    0    0    -1  
$EndComp
$Comp
L R RV1
U 1 1 58066954
P 2700 4900
F 0 "RV1" H 2700 5000 60  0000 C CNN
F 1 "50m" H 2700 4800 60  0000 C CNN
F 2 "" H 2700 4900 60  0000 C CNN
F 3 "" H 2700 4900 60  0000 C CNN
	1    2700 4900
	0    -1   -1   0   
$EndComp
Wire Wire Line
	2700 5100 2700 5300
$Comp
L V VS1
U 1 1 58066EEF
P 7300 2600
F 0 "VS1" H 7200 2800 60  0000 C CNN
F 1 "DC 0V" V 7500 2600 47  0000 C CNN
F 2 "" H 7300 2600 60  0000 C CNN
F 3 "" H 7300 2600 60  0000 C CNN
	1    7300 2600
	1    0    0    -1  
$EndComp
Wire Wire Line
	7300 3000 7300 2800
$Comp
L V VS2
U 1 1 5806721E
P 7300 4700
F 0 "VS2" H 7200 4900 60  0000 C CNN
F 1 "DC 0V" V 7500 4700 47  0000 C CNN
F 2 "" H 7300 4700 60  0000 C CNN
F 3 "" H 7300 4700 60  0000 C CNN
	1    7300 4700
	1    0    0    -1  
$EndComp
Wire Wire Line
	7300 4900 7300 5100
$EndSCHEMATC
